.
COMPUESTO POR:
 
1 CPU Y SOFTWARE
.  MARCA: LENOVO M73
.  MOD.: 004CAS
.  VERSION: 10AX
.  SERIAL: MJ021R54

1 MONITOR LED 22"
.  MARCA: SAMSUNG
.  MOD: SD300
.  SERIAL: 029RH9XG501524M

1 IMPRESORA MULTIFUNCION INKJET
.  MARCA: HEWLETT PACKARD
.  MOD.: 7612
.  SERIAL: CN4BK3M1VB

TECLADO, MOUSE Y ACCESORIOS