1 2-Canal Aplicador Anillo CT/MR, 30°, D=25mm (LCT40-1)
1 2-Canal Aplicador Anillo CT/MR, 30°, D=30mm (LCT40-2)
1 2-Canal Aplicador Anillo CT/MR, 30°, D=35mm (LCT40-3)
1 IU Tubo para Aplicador Anillo CT/MR, 30°, IUL=20mm (LCT40-6)
1 IU Tubo para Aplicador Anillo CT/MR, 30°, IUL=40mm (LCT40-7)
1 IU Tubo para Aplicador Anillo CT/MR, 30°, IUL=60mm (LCT40-8)
2 Casquillo Sellado para LCTXX-XX y agujas de acero (10pcs) (LAZ17-03)