Tipo;Marca;Modelo;Nombre;Serial;Grupo;Propietario;Usuarios
Printer;Canon; ImageRUNNER 1023i;Canon ImageRUNNER 1023i;TJR223891;Ventas;Ninguno; 
Printer;Canon; ImageRUNNER 3245i;Canon ImageRUNNER 3245i;7000107974;Presidencia;Ninguno; 
Printer;Canon;iR3235;Canon iR3235;DGA04296;Compartida Piso 2;Ninguno; 
Printer;DGA04244;iR3235;Canon iR3235;DGA04244;IDACA;Ninguno; 
Printer;EPSON;FX-2190;EPSON FX-2190;FCTY016020;Contabilidad;Ninguno;Noemi Romero
Printer;EPSON;LX 350;EPSON LX 350;Q75Y042201;Tecnologia;Ninguno;Genny Gomez
Printer;EPSON;LX-300 +II;EPSON LX-300+II;NUGY078185;CMDLT;Ninguno;Facturacion CMDLT
Printer;EPSON;LX-300+II;EPSON LX-300+II;NUGY076683;CMDLT;Ninguno; 
Printer;EPSON;LX-350;EPSON LX-350;Q75Y042203;CMDLT;Ninguno;Facturacion CMDLT
Printer;EPSON;Stylus C85;EPSON Stylus C85;FY2Y006957;Ventas;Ninguno; 
Printer;Epson;Stylus CX8300;Epson Stylus CX8300;K4YY035026;Rayos X;Ninguno;Logistica
Printer;EPSON;Stylus TX200;EPSON Stylus TX200;KLFK035792;Proyectos;Ninguno;Proyectos
Printer;EPSON;Stylus TX200;EPSON Stylus TX200;KLFK035789;RRHH;Ninguno;Maria Alfonzo
Printer;EPSON;Stylus TX420W;EPSON Stylus TX420W;MC7P004269;Servicios Generales;Ninguno;Yvonne Mendez
Printer;Evolis;Pebble4;Evolis;10000197332;PCP;Ninguno;Fabio Goite
Printer;HP;Color LaserJet 2600n;HP Color LaserJet 2600n;CNHC6D41T9;Compartida Piso 1;Ninguno; 
Printer;HP;Color Laserjet 3700dn;HP Color Laserjet 3700dn;CNGBB27259;;Ninguno; 
Printer;HP; Color Laserjet 3700dn;HP Color Laserjet 3700dn;CNLBB47908;Tecnologia;Ninguno; 
Printer;HP;Laserjet CP3525dn;HP Color Laserjet CP3525dn;CNCCC6D0OYK;Presidencia;Ninguno; 
Printer;HP;Designjet ;HP Designjet;CN1773K04F;Proyectos;Ninguno; 
Printer;HP;C7796E;HP Designjet 110 plus nr;SG4AE18067;Proyectos;Ninguno; 
Printer;HP;Designjet T120;HP Designjet T120;CN281FM02V;Proyectos;Ninguno; 
Printer;HP;Deskjet 1050;HP Deskjet 1050;CN32M3CH2P;Tecnologia;Ninguno;Secretaria TI
Printer;HP;Deskjet 1050;HP Deskjet 1050;CN3383CGRZ;OYM;Ninguno;Simon Marquez
Printer;HP;Deskjet 1050;HP Deskjet 1050;CN33M39K28;Cobranzas;Ninguno;Grisel Acosta
Printer;HP;Deskjet 1050;HP Deskjet 1050;CN33M39K82;Almacen;Ninguno;Yelitza Cañizalez
Printer;HP;Deskjet 1050;HP Deskjet 1050;CN3383CG5V;Presidencia;Ninguno;Maria Alejandra Blanco
Printer;HP;Deskjet 2000;HP Deskjet 2000;CN0C711PZ7;Legal;Ninguno;Francisco Grullon
Printer;HP;Deskjet 2000;HP Deskjet 2000;CN0C711PZK;Electromecanica;Ninguno;Zuleima Martinez
Printer;HP;Deskjet 5150;HP Deskjet 5150;C8962A;Seguridad Laboral;Ninguno;Karina Garcia
Printer;HP;Deskjet 6940;HP Deskjet 6940;MY7AM8S25G;Presidencia;Ninguno;Yulibeth Sanz
Printer;HP;Deskjet Ink Advantage 1515;HP Deskjet Ink Advantage 1515;CNBL17H2P;Tecnologia;Ninguno;Auxiliar TI
Printer;HP;Deskjet Ink Advantage 1515;HP Deskjet Ink Advantage 1515;CN3AQ17MCW;Importaciones;Ninguno;Yusmely Cedeño
Printer;HP;Deskjet Ink Advantage 1515;HP Deskjet Ink Advantage 1515;CN3BU19N8N;Contabilidad;Ninguno;Noemi Romero
Printer;HP;Deskjet Ink Advantage 2515;HP Deskjet Ink Advantage 2515;CN24C17JVM;IDACA;Ninguno;Javier Moleiro
Printer;HP;Deskjet Ink Advantage 2515;HP Deskjet Ink Advantage 2515;CN27Q3479R;Permisologia;Ninguno;Dawling Castillo
Printer;HP;Deskjet Ink Advantage 2515;HP Deskjet Ink Advantage 2515;CN27Q347B0;Registro;Ninguno;Zulay Nieves
Printer;HP;Deskjet P1050;HP Deskjet P1050;CN3383CGSX;Importaciones;Ninguno;Yusmely Cedeño
Printer;HP;Laserjet 1015;HP Laserjet 1015;CNFB075060;Rayos X;Ninguno;Logistica
Printer;HP;Laserjet 1102w;HP Laserjet 1102w;VND3L51016;Contabilidad;Ninguno;Carlos Marquez
Printer;HP;Laserjet P1005;HP Laserjet P1005;VND3520127;CMDLT;Ninguno;Leonardo Navarro
Printer;HP;Laserjet P2014n;HP Laserjet P2014n;CNBJ108366;RRHH;Ninguno;Julia Fuentes
Printer;HP;Laserjet P2014n;HP Laserjet P2014n;CNBJ504213;PCP;Ninguno;Rafael Carpio
Printer;HP;Laserjet P2014n;HP Laserjet P2014n;CNBJ604139;Comunicaciones Corporativas;Ninguno;Leyse Orlando
Printer;HP;Laserjet P2035n;HP Laserjet P2035n;CNB9T81025;Alta Tecnologia;Ninguno;Maria Jose Cancela
Printer;HP;LaserJet P2035n;HP LaserJet P2035n;CNB9T81032;CMC;Ninguno;Citas Radiologia CMC
Printer;HP;Laserjet Pro 400 Color;HP Laserjet Pro 400 Color;CNBH202722;Ventas;Ninguno; 
Printer;HP;Photosmart C4680;HP Photosmart C4680;Q8418-80013;IDACA;Ninguno;Grace Mijares
Printer;HP;P2035;HPLASERJET P2035;CNB9T81032;CMC;Ninguno; 
Printer;Xerox;WorkCentre M128;Xerox WorkCentre M128;65911;Compartida Piso 1;Ninguno; 
Printer;Zebra;LP2844;Zebra LP2844;42A070202850;Tecnologia;Ninguno;Genny Gomez
